{
  "project_info": {
    "project_number": "530918649101",
    "firebase_url": "https://sc4redone.firebaseio.com",
    "project_id": "sc4redone",
    "storage_bucket": "sc4redone.appspot.com"
  },
  "client": [
    {
      "client_info": {
        "mobilesdk_app_id": "1:530918649101:android:6f906b75fe555885",
        "android_client_info": {
          "package_name": "com.example.sc4redone"
        }
      },
      "oauth_client": [
        {
          "client_id": "530918649101-585eedo023utti089nk66crnuguja37n.apps.googleusercontent.com",
          "client_type": 1,
          "android_info": {
            "package_name": "com.example.sc4redone",
            "certificate_hash": "df1a9d5b11ab9cd859eeb5ed98d730e011b41c53"
          }
        }
      ],
      "api_key": [
        {
          "current_key": "AIzaSyBcbpvwQPv3oPgTz6-QFHgI_dAe-LBSU2Q"
        }
      ],
      "services": {
        "appinvite_service": {
          "other_platform_oauth_client": [
            {
              "client_id": "530918649101-n4v6rirvmmhcqk224udbeqhgl634v9ls.apps.googleusercontent.com",
              "client_type": 3
            }
          ]
        }
      }
    }
  ],
  "configuration_version": "1"
}